<mxfile host="app.diagrams.net" modified="2021-05-08T21:54:46.923Z" agent="5.0 (Windows NT 10.0; Win64; x64) AppleWebKit/537.36 (KHTML, like Gecko) Chrome/89.0.4389.128 Safari/537.36 OPR/75.0.3969.243" etag="XiWQyXgzkyEuVH_Ty42t" version="14.6.11" type="gitlab">
  <diagram name="Page-1" id="03018318-947c-dd8e-b7a3-06fadd420f32">
    <mxGraphModel dx="1382" dy="795" grid="1" gridSize="10" guides="1" tooltips="1" connect="1" arrows="1" fold="1" page="1" pageScale="1" pageWidth="1100" pageHeight="850" background="#ffffff" math="0" shadow="0">
      <root>
        <mxCell id="0" />
        <mxCell id="1" parent="0" />
        <mxCell id="jlmcXLu1mNQ2lfW7VMsQ-1" value="" style="strokeWidth=1;shadow=0;dashed=0;align=center;html=1;shape=mxgraph.mockup.containers.browserWindow;rSize=0;strokeColor=#666666;strokeColor2=#008cff;strokeColor3=#c4c4c4;mainText=,;recursiveResize=0;" vertex="1" parent="1">
          <mxGeometry x="25" y="30" width="1050" height="980" as="geometry" />
        </mxCell>
        <mxCell id="jlmcXLu1mNQ2lfW7VMsQ-2" value="index" style="strokeWidth=1;shadow=0;dashed=0;align=center;html=1;shape=mxgraph.mockup.containers.anchor;fontSize=17;fontColor=#666666;align=left;" vertex="1" parent="jlmcXLu1mNQ2lfW7VMsQ-1">
          <mxGeometry x="60" y="12" width="110" height="26" as="geometry" />
        </mxCell>
        <mxCell id="jlmcXLu1mNQ2lfW7VMsQ-3" value="index page without login" style="strokeWidth=1;shadow=0;dashed=0;align=center;html=1;shape=mxgraph.mockup.containers.anchor;rSize=0;fontSize=17;fontColor=#666666;align=left;" vertex="1" parent="jlmcXLu1mNQ2lfW7VMsQ-1">
          <mxGeometry x="130" y="60" width="250" height="26" as="geometry" />
        </mxCell>
        <mxCell id="jlmcXLu1mNQ2lfW7VMsQ-12" value="" style="group" vertex="1" connectable="0" parent="jlmcXLu1mNQ2lfW7VMsQ-1">
          <mxGeometry x="20" y="120" width="980" height="110" as="geometry" />
        </mxCell>
        <mxCell id="jlmcXLu1mNQ2lfW7VMsQ-5" value="Simple Traders" style="rounded=0;whiteSpace=wrap;html=1;" vertex="1" parent="jlmcXLu1mNQ2lfW7VMsQ-12">
          <mxGeometry width="210" height="110" as="geometry" />
        </mxCell>
        <mxCell id="jlmcXLu1mNQ2lfW7VMsQ-10" value="Login" style="strokeWidth=1;shadow=0;dashed=0;align=center;html=1;shape=mxgraph.mockup.buttons.button;strokeColor=#666666;fontColor=#ffffff;mainText=;buttonStyle=round;fontSize=17;fontStyle=1;fillColor=#008cff;whiteSpace=wrap;" vertex="1" parent="jlmcXLu1mNQ2lfW7VMsQ-12">
          <mxGeometry x="830" y="20" width="150" height="40" as="geometry" />
        </mxCell>
        <mxCell id="jlmcXLu1mNQ2lfW7VMsQ-11" value="Search" style="strokeWidth=1;shadow=0;dashed=0;align=center;html=1;shape=mxgraph.mockup.forms.searchBox;strokeColor=#999999;mainText=;strokeColor2=#008cff;fontColor=#666666;fontSize=17;align=left;spacingLeft=3;" vertex="1" parent="jlmcXLu1mNQ2lfW7VMsQ-12">
          <mxGeometry x="270" y="30" width="470" height="50" as="geometry" />
        </mxCell>
        <mxCell id="jlmcXLu1mNQ2lfW7VMsQ-33" value="" style="group" vertex="1" connectable="0" parent="jlmcXLu1mNQ2lfW7VMsQ-1">
          <mxGeometry x="275" y="260" width="480" height="230" as="geometry" />
        </mxCell>
        <mxCell id="jlmcXLu1mNQ2lfW7VMsQ-26" value="" style="rounded=0;whiteSpace=wrap;html=1;" vertex="1" parent="jlmcXLu1mNQ2lfW7VMsQ-33">
          <mxGeometry width="480" height="220" as="geometry" />
        </mxCell>
        <mxCell id="jlmcXLu1mNQ2lfW7VMsQ-27" value="" style="shape=image;html=1;verticalAlign=top;verticalLabelPosition=bottom;labelBackgroundColor=#ffffff;imageAspect=0;aspect=fixed;image=https://cdn2.iconfinder.com/data/icons/bitsies/128/Image-128.png" vertex="1" parent="jlmcXLu1mNQ2lfW7VMsQ-33">
          <mxGeometry x="150" y="30" width="190" height="190" as="geometry" />
        </mxCell>
        <mxCell id="jlmcXLu1mNQ2lfW7VMsQ-29" value="&lt;font style=&quot;font-size: 14px&quot;&gt;Item Title&lt;/font&gt;" style="text;html=1;strokeColor=none;fillColor=none;align=center;verticalAlign=middle;whiteSpace=wrap;rounded=0;" vertex="1" parent="jlmcXLu1mNQ2lfW7VMsQ-33">
          <mxGeometry x="110" y="10" width="140" height="20" as="geometry" />
        </mxCell>
        <mxCell id="jlmcXLu1mNQ2lfW7VMsQ-30" value="&lt;font style=&quot;font-size: 14px&quot;&gt;$ 10.00&lt;/font&gt;" style="text;html=1;strokeColor=none;fillColor=none;align=center;verticalAlign=middle;whiteSpace=wrap;rounded=0;" vertex="1" parent="jlmcXLu1mNQ2lfW7VMsQ-33">
          <mxGeometry x="280" y="190" width="90" height="40" as="geometry" />
        </mxCell>
        <mxCell id="jlmcXLu1mNQ2lfW7VMsQ-34" value="" style="group" vertex="1" connectable="0" parent="jlmcXLu1mNQ2lfW7VMsQ-1">
          <mxGeometry x="275" y="490" width="480" height="230" as="geometry" />
        </mxCell>
        <mxCell id="jlmcXLu1mNQ2lfW7VMsQ-35" value="" style="rounded=0;whiteSpace=wrap;html=1;" vertex="1" parent="jlmcXLu1mNQ2lfW7VMsQ-34">
          <mxGeometry width="480" height="220" as="geometry" />
        </mxCell>
        <mxCell id="jlmcXLu1mNQ2lfW7VMsQ-36" value="" style="shape=image;html=1;verticalAlign=top;verticalLabelPosition=bottom;labelBackgroundColor=#ffffff;imageAspect=0;aspect=fixed;image=https://cdn2.iconfinder.com/data/icons/bitsies/128/Image-128.png" vertex="1" parent="jlmcXLu1mNQ2lfW7VMsQ-34">
          <mxGeometry x="150" y="30" width="190" height="190" as="geometry" />
        </mxCell>
        <mxCell id="jlmcXLu1mNQ2lfW7VMsQ-37" value="&lt;font style=&quot;font-size: 14px&quot;&gt;Item Title&lt;/font&gt;" style="text;html=1;strokeColor=none;fillColor=none;align=center;verticalAlign=middle;whiteSpace=wrap;rounded=0;" vertex="1" parent="jlmcXLu1mNQ2lfW7VMsQ-34">
          <mxGeometry x="110" y="10" width="140" height="20" as="geometry" />
        </mxCell>
        <mxCell id="jlmcXLu1mNQ2lfW7VMsQ-38" value="&lt;font style=&quot;font-size: 14px&quot;&gt;$ 10.00&lt;/font&gt;" style="text;html=1;strokeColor=none;fillColor=none;align=center;verticalAlign=middle;whiteSpace=wrap;rounded=0;" vertex="1" parent="jlmcXLu1mNQ2lfW7VMsQ-34">
          <mxGeometry x="280" y="190" width="90" height="40" as="geometry" />
        </mxCell>
        <mxCell id="jlmcXLu1mNQ2lfW7VMsQ-39" value="" style="group" vertex="1" connectable="0" parent="jlmcXLu1mNQ2lfW7VMsQ-1">
          <mxGeometry x="275" y="720" width="480" height="230" as="geometry" />
        </mxCell>
        <mxCell id="jlmcXLu1mNQ2lfW7VMsQ-40" value="" style="rounded=0;whiteSpace=wrap;html=1;" vertex="1" parent="jlmcXLu1mNQ2lfW7VMsQ-39">
          <mxGeometry width="480" height="220" as="geometry" />
        </mxCell>
        <mxCell id="jlmcXLu1mNQ2lfW7VMsQ-41" value="" style="shape=image;html=1;verticalAlign=top;verticalLabelPosition=bottom;labelBackgroundColor=#ffffff;imageAspect=0;aspect=fixed;image=https://cdn2.iconfinder.com/data/icons/bitsies/128/Image-128.png" vertex="1" parent="jlmcXLu1mNQ2lfW7VMsQ-39">
          <mxGeometry x="150" y="30" width="190" height="190" as="geometry" />
        </mxCell>
        <mxCell id="jlmcXLu1mNQ2lfW7VMsQ-42" value="&lt;font style=&quot;font-size: 14px&quot;&gt;Item Title&lt;/font&gt;" style="text;html=1;strokeColor=none;fillColor=none;align=center;verticalAlign=middle;whiteSpace=wrap;rounded=0;" vertex="1" parent="jlmcXLu1mNQ2lfW7VMsQ-39">
          <mxGeometry x="110" y="10" width="140" height="20" as="geometry" />
        </mxCell>
        <mxCell id="jlmcXLu1mNQ2lfW7VMsQ-43" value="&lt;font style=&quot;font-size: 14px&quot;&gt;$ 10.00&lt;/font&gt;" style="text;html=1;strokeColor=none;fillColor=none;align=center;verticalAlign=middle;whiteSpace=wrap;rounded=0;" vertex="1" parent="jlmcXLu1mNQ2lfW7VMsQ-39">
          <mxGeometry x="280" y="190" width="90" height="40" as="geometry" />
        </mxCell>
        <mxCell id="jlmcXLu1mNQ2lfW7VMsQ-44" value="" style="strokeWidth=1;shadow=0;dashed=0;align=center;html=1;shape=mxgraph.mockup.containers.browserWindow;rSize=0;strokeColor=#666666;strokeColor2=#008cff;strokeColor3=#c4c4c4;mainText=,;recursiveResize=0;" vertex="1" parent="1">
          <mxGeometry x="30" y="1090" width="1050" height="980" as="geometry" />
        </mxCell>
        <mxCell id="jlmcXLu1mNQ2lfW7VMsQ-45" value="index" style="strokeWidth=1;shadow=0;dashed=0;align=center;html=1;shape=mxgraph.mockup.containers.anchor;fontSize=17;fontColor=#666666;align=left;" vertex="1" parent="jlmcXLu1mNQ2lfW7VMsQ-44">
          <mxGeometry x="60" y="12" width="110" height="26" as="geometry" />
        </mxCell>
        <mxCell id="jlmcXLu1mNQ2lfW7VMsQ-46" value="index page logged in" style="strokeWidth=1;shadow=0;dashed=0;align=center;html=1;shape=mxgraph.mockup.containers.anchor;rSize=0;fontSize=17;fontColor=#666666;align=left;" vertex="1" parent="jlmcXLu1mNQ2lfW7VMsQ-44">
          <mxGeometry x="130" y="60" width="250" height="26" as="geometry" />
        </mxCell>
        <mxCell id="jlmcXLu1mNQ2lfW7VMsQ-51" value="" style="group" vertex="1" connectable="0" parent="jlmcXLu1mNQ2lfW7VMsQ-44">
          <mxGeometry x="275" y="260" width="480" height="230" as="geometry" />
        </mxCell>
        <mxCell id="jlmcXLu1mNQ2lfW7VMsQ-52" value="" style="rounded=0;whiteSpace=wrap;html=1;" vertex="1" parent="jlmcXLu1mNQ2lfW7VMsQ-51">
          <mxGeometry width="480" height="220" as="geometry" />
        </mxCell>
        <mxCell id="jlmcXLu1mNQ2lfW7VMsQ-53" value="" style="shape=image;html=1;verticalAlign=top;verticalLabelPosition=bottom;labelBackgroundColor=#ffffff;imageAspect=0;aspect=fixed;image=https://cdn2.iconfinder.com/data/icons/bitsies/128/Image-128.png" vertex="1" parent="jlmcXLu1mNQ2lfW7VMsQ-51">
          <mxGeometry x="150" y="30" width="190" height="190" as="geometry" />
        </mxCell>
        <mxCell id="jlmcXLu1mNQ2lfW7VMsQ-54" value="&lt;font style=&quot;font-size: 14px&quot;&gt;Item Title&lt;/font&gt;" style="text;html=1;strokeColor=none;fillColor=none;align=center;verticalAlign=middle;whiteSpace=wrap;rounded=0;" vertex="1" parent="jlmcXLu1mNQ2lfW7VMsQ-51">
          <mxGeometry x="110" y="10" width="140" height="20" as="geometry" />
        </mxCell>
        <mxCell id="jlmcXLu1mNQ2lfW7VMsQ-55" value="&lt;font style=&quot;font-size: 14px&quot;&gt;$ 10.00&lt;/font&gt;" style="text;html=1;strokeColor=none;fillColor=none;align=center;verticalAlign=middle;whiteSpace=wrap;rounded=0;" vertex="1" parent="jlmcXLu1mNQ2lfW7VMsQ-51">
          <mxGeometry x="280" y="190" width="90" height="40" as="geometry" />
        </mxCell>
        <mxCell id="jlmcXLu1mNQ2lfW7VMsQ-56" value="" style="group" vertex="1" connectable="0" parent="jlmcXLu1mNQ2lfW7VMsQ-44">
          <mxGeometry x="275" y="490" width="480" height="230" as="geometry" />
        </mxCell>
        <mxCell id="jlmcXLu1mNQ2lfW7VMsQ-57" value="" style="rounded=0;whiteSpace=wrap;html=1;" vertex="1" parent="jlmcXLu1mNQ2lfW7VMsQ-56">
          <mxGeometry width="480" height="220" as="geometry" />
        </mxCell>
        <mxCell id="jlmcXLu1mNQ2lfW7VMsQ-58" value="" style="shape=image;html=1;verticalAlign=top;verticalLabelPosition=bottom;labelBackgroundColor=#ffffff;imageAspect=0;aspect=fixed;image=https://cdn2.iconfinder.com/data/icons/bitsies/128/Image-128.png" vertex="1" parent="jlmcXLu1mNQ2lfW7VMsQ-56">
          <mxGeometry x="150" y="30" width="190" height="190" as="geometry" />
        </mxCell>
        <mxCell id="jlmcXLu1mNQ2lfW7VMsQ-59" value="&lt;font style=&quot;font-size: 14px&quot;&gt;Item Title&lt;/font&gt;" style="text;html=1;strokeColor=none;fillColor=none;align=center;verticalAlign=middle;whiteSpace=wrap;rounded=0;" vertex="1" parent="jlmcXLu1mNQ2lfW7VMsQ-56">
          <mxGeometry x="110" y="10" width="140" height="20" as="geometry" />
        </mxCell>
        <mxCell id="jlmcXLu1mNQ2lfW7VMsQ-60" value="&lt;font style=&quot;font-size: 14px&quot;&gt;$ 10.00&lt;/font&gt;" style="text;html=1;strokeColor=none;fillColor=none;align=center;verticalAlign=middle;whiteSpace=wrap;rounded=0;" vertex="1" parent="jlmcXLu1mNQ2lfW7VMsQ-56">
          <mxGeometry x="280" y="190" width="90" height="40" as="geometry" />
        </mxCell>
        <mxCell id="jlmcXLu1mNQ2lfW7VMsQ-61" value="" style="group" vertex="1" connectable="0" parent="jlmcXLu1mNQ2lfW7VMsQ-44">
          <mxGeometry x="275" y="720" width="480" height="230" as="geometry" />
        </mxCell>
        <mxCell id="jlmcXLu1mNQ2lfW7VMsQ-62" value="" style="rounded=0;whiteSpace=wrap;html=1;" vertex="1" parent="jlmcXLu1mNQ2lfW7VMsQ-61">
          <mxGeometry width="480" height="220" as="geometry" />
        </mxCell>
        <mxCell id="jlmcXLu1mNQ2lfW7VMsQ-63" value="" style="shape=image;html=1;verticalAlign=top;verticalLabelPosition=bottom;labelBackgroundColor=#ffffff;imageAspect=0;aspect=fixed;image=https://cdn2.iconfinder.com/data/icons/bitsies/128/Image-128.png" vertex="1" parent="jlmcXLu1mNQ2lfW7VMsQ-61">
          <mxGeometry x="150" y="30" width="190" height="190" as="geometry" />
        </mxCell>
        <mxCell id="jlmcXLu1mNQ2lfW7VMsQ-64" value="&lt;font style=&quot;font-size: 14px&quot;&gt;Item Title&lt;/font&gt;" style="text;html=1;strokeColor=none;fillColor=none;align=center;verticalAlign=middle;whiteSpace=wrap;rounded=0;" vertex="1" parent="jlmcXLu1mNQ2lfW7VMsQ-61">
          <mxGeometry x="110" y="10" width="140" height="20" as="geometry" />
        </mxCell>
        <mxCell id="jlmcXLu1mNQ2lfW7VMsQ-65" value="&lt;font style=&quot;font-size: 14px&quot;&gt;$ 10.00&lt;/font&gt;" style="text;html=1;strokeColor=none;fillColor=none;align=center;verticalAlign=middle;whiteSpace=wrap;rounded=0;" vertex="1" parent="jlmcXLu1mNQ2lfW7VMsQ-61">
          <mxGeometry x="280" y="190" width="90" height="40" as="geometry" />
        </mxCell>
        <mxCell id="jlmcXLu1mNQ2lfW7VMsQ-48" value="Simple Traders" style="rounded=0;whiteSpace=wrap;html=1;" vertex="1" parent="jlmcXLu1mNQ2lfW7VMsQ-44">
          <mxGeometry x="20" y="120" width="210" height="110" as="geometry" />
        </mxCell>
        <mxCell id="jlmcXLu1mNQ2lfW7VMsQ-50" value="Search" style="strokeWidth=1;shadow=0;dashed=0;align=center;html=1;shape=mxgraph.mockup.forms.searchBox;strokeColor=#999999;mainText=;strokeColor2=#008cff;fontColor=#666666;fontSize=17;align=left;spacingLeft=3;" vertex="1" parent="jlmcXLu1mNQ2lfW7VMsQ-44">
          <mxGeometry x="290" y="150" width="470" height="50" as="geometry" />
        </mxCell>
        <mxCell id="jlmcXLu1mNQ2lfW7VMsQ-66" value="" style="dashed=0;align=center;fontSize=12;shape=rect;fillColor=#ffffff;strokeColor=#cccccc;shadow=1;" vertex="1" parent="jlmcXLu1mNQ2lfW7VMsQ-44">
          <mxGeometry x="870" y="150" width="140" height="180" as="geometry" />
        </mxCell>
        <mxCell id="jlmcXLu1mNQ2lfW7VMsQ-67" value="User&#39;s Name" style="shape=rect;fontColor=#000000;verticalAlign=middle;spacingLeft=13;fontSize=14;strokeColor=#cccccc;align=left;resizeWidth=1;" vertex="1" parent="jlmcXLu1mNQ2lfW7VMsQ-66">
          <mxGeometry width="140" height="40" relative="1" as="geometry" />
        </mxCell>
        <mxCell id="jlmcXLu1mNQ2lfW7VMsQ-68" value="" style="dashed=0;html=1;shape=mxgraph.gmdl.triangle;fillColor=#cccccc;strokeColor=none;" vertex="1" parent="jlmcXLu1mNQ2lfW7VMsQ-67">
          <mxGeometry x="1" y="0.5" width="10" height="5" relative="1" as="geometry">
            <mxPoint x="-25" y="-2.5" as="offset" />
          </mxGeometry>
        </mxCell>
        <mxCell id="jlmcXLu1mNQ2lfW7VMsQ-69" value="View my posts" style="shape=rect;align=left;fontColor=#000000;verticalAlign=middle;spacingLeft=13;fontSize=14;fillColor=#eeeeee;strokeColor=none;resizeWidth=1;" vertex="1" parent="jlmcXLu1mNQ2lfW7VMsQ-66">
          <mxGeometry width="140" height="30" relative="1" as="geometry">
            <mxPoint y="50" as="offset" />
          </mxGeometry>
        </mxCell>
        <mxCell id="jlmcXLu1mNQ2lfW7VMsQ-70" value="Create Post" style="text;fontColor=#000000;verticalAlign=middle;spacingLeft=13;fontSize=14;resizeWidth=1;" vertex="1" parent="jlmcXLu1mNQ2lfW7VMsQ-66">
          <mxGeometry width="140" height="30" relative="1" as="geometry">
            <mxPoint y="80" as="offset" />
          </mxGeometry>
        </mxCell>
        <mxCell id="jlmcXLu1mNQ2lfW7VMsQ-71" value="Profile" style="text;fontColor=#000000;verticalAlign=middle;spacingLeft=13;fontSize=14;resizeWidth=1;" vertex="1" parent="jlmcXLu1mNQ2lfW7VMsQ-66">
          <mxGeometry width="140" height="30" relative="1" as="geometry">
            <mxPoint y="110" as="offset" />
          </mxGeometry>
        </mxCell>
        <mxCell id="jlmcXLu1mNQ2lfW7VMsQ-76" value="Logout" style="text;fontColor=#000000;verticalAlign=middle;spacingLeft=13;fontSize=14;resizeWidth=1;" vertex="1" parent="jlmcXLu1mNQ2lfW7VMsQ-66">
          <mxGeometry width="140" height="30" relative="1" as="geometry">
            <mxPoint y="140" as="offset" />
          </mxGeometry>
        </mxCell>
        <mxCell id="jlmcXLu1mNQ2lfW7VMsQ-77" value="" style="strokeWidth=1;shadow=0;dashed=0;align=center;html=1;shape=mxgraph.mockup.containers.browserWindow;rSize=0;strokeColor=#666666;strokeColor2=#008cff;strokeColor3=#c4c4c4;mainText=,;recursiveResize=0;" vertex="1" parent="1">
          <mxGeometry x="40" y="2110" width="1050" height="650" as="geometry" />
        </mxCell>
        <mxCell id="jlmcXLu1mNQ2lfW7VMsQ-78" value="Create Post" style="strokeWidth=1;shadow=0;dashed=0;align=center;html=1;shape=mxgraph.mockup.containers.anchor;fontSize=17;fontColor=#666666;align=left;" vertex="1" parent="jlmcXLu1mNQ2lfW7VMsQ-77">
          <mxGeometry x="60" y="12" width="110" height="26" as="geometry" />
        </mxCell>
        <mxCell id="jlmcXLu1mNQ2lfW7VMsQ-79" value="Create &amp;amp; Update Post" style="strokeWidth=1;shadow=0;dashed=0;align=center;html=1;shape=mxgraph.mockup.containers.anchor;rSize=0;fontSize=17;fontColor=#666666;align=left;" vertex="1" parent="jlmcXLu1mNQ2lfW7VMsQ-77">
          <mxGeometry x="130" y="60" width="250" height="26" as="geometry" />
        </mxCell>
        <mxCell id="jlmcXLu1mNQ2lfW7VMsQ-83" value="&lt;font style=&quot;font-size: 24px&quot;&gt;Create &amp;amp; Update Post&lt;/font&gt;" style="text;html=1;strokeColor=none;fillColor=none;align=center;verticalAlign=middle;whiteSpace=wrap;rounded=0;" vertex="1" parent="jlmcXLu1mNQ2lfW7VMsQ-77">
          <mxGeometry x="270" y="120" width="480" height="50" as="geometry" />
        </mxCell>
        <mxCell id="jlmcXLu1mNQ2lfW7VMsQ-82" value="" style="shape=image;html=1;verticalAlign=top;verticalLabelPosition=bottom;labelBackgroundColor=#ffffff;imageAspect=0;aspect=fixed;image=https://cdn2.iconfinder.com/data/icons/bitsies/128/Image-128.png" vertex="1" parent="jlmcXLu1mNQ2lfW7VMsQ-77">
          <mxGeometry x="390" y="160" width="250" height="250" as="geometry" />
        </mxCell>
        <mxCell id="jlmcXLu1mNQ2lfW7VMsQ-105" value="Choose File" style="fillColor=#FEFEFE;strokeColor=#AAAAAA;fontSize=14;gradientColor=#F0F0F0;" vertex="1" parent="jlmcXLu1mNQ2lfW7VMsQ-77">
          <mxGeometry x="465" y="390" width="90" height="30" as="geometry" />
        </mxCell>
        <mxCell id="jlmcXLu1mNQ2lfW7VMsQ-107" value="Title" style="rounded=1;align=center;fillColor=#F1F2F4;strokeColor=none;html=1;fontColor=#596780;fontSize=12" vertex="1" parent="jlmcXLu1mNQ2lfW7VMsQ-77">
          <mxGeometry x="380" y="440" width="80" height="33" as="geometry" />
        </mxCell>
        <mxCell id="jlmcXLu1mNQ2lfW7VMsQ-108" value="Asking Price" style="rounded=1;align=center;fillColor=#F1F2F4;strokeColor=none;html=1;fontColor=#596780;fontSize=12" vertex="1" parent="jlmcXLu1mNQ2lfW7VMsQ-77">
          <mxGeometry x="380" y="490" width="80" height="33" as="geometry" />
        </mxCell>
        <mxCell id="jlmcXLu1mNQ2lfW7VMsQ-109" value="Decsription" style="rounded=1;align=center;fillColor=#F1F2F4;strokeColor=none;html=1;fontColor=#596780;fontSize=12" vertex="1" parent="jlmcXLu1mNQ2lfW7VMsQ-77">
          <mxGeometry x="380" y="537" width="80" height="33" as="geometry" />
        </mxCell>
        <mxCell id="jlmcXLu1mNQ2lfW7VMsQ-110" value="" style="strokeWidth=1;shadow=0;dashed=0;align=center;html=1;shape=mxgraph.mockup.text.textBox;fontColor=#666666;align=left;fontSize=17;spacingLeft=4;spacingTop=-3;strokeColor=#666666;mainText=" vertex="1" parent="jlmcXLu1mNQ2lfW7VMsQ-77">
          <mxGeometry x="480" y="441.5" width="150" height="30" as="geometry" />
        </mxCell>
        <mxCell id="jlmcXLu1mNQ2lfW7VMsQ-111" value="" style="strokeWidth=1;shadow=0;dashed=0;align=center;html=1;shape=mxgraph.mockup.text.textBox;fontColor=#666666;align=left;fontSize=17;spacingLeft=4;spacingTop=-3;strokeColor=#666666;mainText=" vertex="1" parent="jlmcXLu1mNQ2lfW7VMsQ-77">
          <mxGeometry x="480" y="490" width="150" height="30" as="geometry" />
        </mxCell>
        <mxCell id="jlmcXLu1mNQ2lfW7VMsQ-112" value="" style="strokeWidth=1;shadow=0;dashed=0;align=center;html=1;shape=mxgraph.mockup.text.textBox;fontColor=#666666;align=left;fontSize=17;spacingLeft=4;spacingTop=-3;strokeColor=#666666;mainText=" vertex="1" parent="jlmcXLu1mNQ2lfW7VMsQ-77">
          <mxGeometry x="480" y="540" width="150" height="100" as="geometry" />
        </mxCell>
        <mxCell id="jlmcXLu1mNQ2lfW7VMsQ-115" value="d" style="strokeWidth=1;shadow=0;dashed=0;align=center;html=1;shape=mxgraph.mockup.containers.browserWindow;rSize=0;strokeColor=#666666;strokeColor2=#008cff;strokeColor3=#c4c4c4;mainText=,;recursiveResize=0;" vertex="1" parent="1">
          <mxGeometry x="40" y="2790" width="1050" height="740" as="geometry" />
        </mxCell>
        <mxCell id="jlmcXLu1mNQ2lfW7VMsQ-116" value="Item Detail" style="strokeWidth=1;shadow=0;dashed=0;align=center;html=1;shape=mxgraph.mockup.containers.anchor;fontSize=17;fontColor=#666666;align=left;" vertex="1" parent="jlmcXLu1mNQ2lfW7VMsQ-115">
          <mxGeometry x="60" y="12" width="110" height="26" as="geometry" />
        </mxCell>
        <mxCell id="jlmcXLu1mNQ2lfW7VMsQ-117" value="Item Detail" style="strokeWidth=1;shadow=0;dashed=0;align=center;html=1;shape=mxgraph.mockup.containers.anchor;rSize=0;fontSize=17;fontColor=#666666;align=left;" vertex="1" parent="jlmcXLu1mNQ2lfW7VMsQ-115">
          <mxGeometry x="130" y="60" width="250" height="26" as="geometry" />
        </mxCell>
        <mxCell id="jlmcXLu1mNQ2lfW7VMsQ-118" value="&lt;font style=&quot;font-size: 24px&quot;&gt;Item Title&lt;/font&gt;" style="text;html=1;strokeColor=none;fillColor=none;align=center;verticalAlign=middle;whiteSpace=wrap;rounded=0;" vertex="1" parent="jlmcXLu1mNQ2lfW7VMsQ-115">
          <mxGeometry x="270" y="100" width="480" height="50" as="geometry" />
        </mxCell>
        <mxCell id="jlmcXLu1mNQ2lfW7VMsQ-119" value="" style="shape=image;html=1;verticalAlign=top;verticalLabelPosition=bottom;labelBackgroundColor=#ffffff;imageAspect=0;aspect=fixed;image=https://cdn2.iconfinder.com/data/icons/bitsies/128/Image-128.png" vertex="1" parent="jlmcXLu1mNQ2lfW7VMsQ-115">
          <mxGeometry x="380" y="110" width="250" height="250" as="geometry" />
        </mxCell>
        <mxCell id="jlmcXLu1mNQ2lfW7VMsQ-127" value="Description here...............&lt;br&gt;..............&lt;br&gt;.............." style="strokeWidth=1;shadow=0;dashed=0;align=left;html=1;shape=mxgraph.mockup.text.textBox;fontColor=#666666;align=left;fontSize=17;spacingLeft=4;spacingTop=-3;strokeColor=#666666;mainText=" vertex="1" parent="jlmcXLu1mNQ2lfW7VMsQ-115">
          <mxGeometry x="390" y="330" width="250" height="100" as="geometry" />
        </mxCell>
        <mxCell id="jlmcXLu1mNQ2lfW7VMsQ-128" value="Price: $ xx.xx" style="strokeWidth=1;shadow=0;dashed=0;align=center;html=1;shape=mxgraph.mockup.text.textBox;fontColor=#666666;align=left;fontSize=17;spacingLeft=4;spacingTop=-3;strokeColor=#666666;mainText=" vertex="1" parent="jlmcXLu1mNQ2lfW7VMsQ-115">
          <mxGeometry x="390" y="430" width="250" height="30" as="geometry" />
        </mxCell>
        <mxCell id="jlmcXLu1mNQ2lfW7VMsQ-129" value="Notify Seller" style="strokeWidth=1;shadow=0;dashed=0;align=center;html=1;shape=mxgraph.mockup.buttons.button;strokeColor=#666666;fontColor=#ffffff;mainText=;buttonStyle=round;fontSize=17;fontStyle=1;fillColor=#008cff;whiteSpace=wrap;" vertex="1" parent="jlmcXLu1mNQ2lfW7VMsQ-115">
          <mxGeometry x="390" y="550" width="90" height="50" as="geometry" />
        </mxCell>
        <mxCell id="jlmcXLu1mNQ2lfW7VMsQ-130" value="Go back" style="strokeWidth=1;shadow=0;dashed=0;align=center;html=1;shape=mxgraph.mockup.buttons.button;strokeColor=#666666;fontColor=#ffffff;mainText=;buttonStyle=round;fontSize=17;fontStyle=1;fillColor=#008cff;whiteSpace=wrap;" vertex="1" parent="jlmcXLu1mNQ2lfW7VMsQ-115">
          <mxGeometry x="545" y="550" width="90" height="50" as="geometry" />
        </mxCell>
        <mxCell id="jlmcXLu1mNQ2lfW7VMsQ-131" value="Email: sdkjfhkjdhf@dkjfkj.com" style="strokeWidth=1;shadow=0;dashed=0;align=center;html=1;shape=mxgraph.mockup.text.textBox;fontColor=#666666;align=left;fontSize=17;spacingLeft=4;spacingTop=-3;strokeColor=#666666;mainText=" vertex="1" parent="jlmcXLu1mNQ2lfW7VMsQ-115">
          <mxGeometry x="390" y="460" width="250" height="30" as="geometry" />
        </mxCell>
        <mxCell id="jlmcXLu1mNQ2lfW7VMsQ-132" value="Phone: xxx-xxx-xxxx" style="strokeWidth=1;shadow=0;dashed=0;align=center;html=1;shape=mxgraph.mockup.text.textBox;fontColor=#666666;align=left;fontSize=17;spacingLeft=4;spacingTop=-3;strokeColor=#666666;mainText=" vertex="1" parent="jlmcXLu1mNQ2lfW7VMsQ-115">
          <mxGeometry x="390" y="490" width="250" height="30" as="geometry" />
        </mxCell>
        <mxCell id="jlmcXLu1mNQ2lfW7VMsQ-133" value="" style="strokeWidth=1;shadow=0;dashed=0;align=center;html=1;shape=mxgraph.mockup.containers.browserWindow;rSize=0;strokeColor=#666666;strokeColor2=#008cff;strokeColor3=#c4c4c4;mainText=,;recursiveResize=0;" vertex="1" parent="1">
          <mxGeometry x="40" y="3550" width="1050" height="650" as="geometry" />
        </mxCell>
        <mxCell id="jlmcXLu1mNQ2lfW7VMsQ-134" value="Registration" style="strokeWidth=1;shadow=0;dashed=0;align=center;html=1;shape=mxgraph.mockup.containers.anchor;fontSize=17;fontColor=#666666;align=left;" vertex="1" parent="jlmcXLu1mNQ2lfW7VMsQ-133">
          <mxGeometry x="60" y="12" width="110" height="26" as="geometry" />
        </mxCell>
        <mxCell id="jlmcXLu1mNQ2lfW7VMsQ-135" value="User Registration &amp;amp; Details" style="strokeWidth=1;shadow=0;dashed=0;align=center;html=1;shape=mxgraph.mockup.containers.anchor;rSize=0;fontSize=17;fontColor=#666666;align=left;" vertex="1" parent="jlmcXLu1mNQ2lfW7VMsQ-133">
          <mxGeometry x="130" y="60" width="250" height="26" as="geometry" />
        </mxCell>
        <mxCell id="jlmcXLu1mNQ2lfW7VMsQ-156" value="username" style="fillColor=none;strokeColor=none;align=left;fontSize=16;fontColor=#212529;" vertex="1" parent="jlmcXLu1mNQ2lfW7VMsQ-133">
          <mxGeometry x="110" y="230" width="80" height="40" as="geometry" />
        </mxCell>
        <mxCell id="jlmcXLu1mNQ2lfW7VMsQ-157" value="" style="html=1;shadow=0;dashed=0;shape=mxgraph.bootstrap.rrect;rSize=5;fillColor=none;strokeColor=#999999;align=left;spacing=15;fontSize=16;fontColor=#6C767D;" vertex="1" parent="jlmcXLu1mNQ2lfW7VMsQ-133">
          <mxGeometry x="190" y="230" width="730" height="40" as="geometry" />
        </mxCell>
        <mxCell id="jlmcXLu1mNQ2lfW7VMsQ-160" value="email" style="fillColor=none;strokeColor=none;align=left;fontSize=16;fontColor=#212529;" vertex="1" parent="jlmcXLu1mNQ2lfW7VMsQ-133">
          <mxGeometry x="110" y="290" width="80" height="40" as="geometry" />
        </mxCell>
        <mxCell id="jlmcXLu1mNQ2lfW7VMsQ-161" value="" style="html=1;shadow=0;dashed=0;shape=mxgraph.bootstrap.rrect;rSize=5;fillColor=none;strokeColor=#999999;align=left;spacing=15;fontSize=16;fontColor=#6C767D;" vertex="1" parent="jlmcXLu1mNQ2lfW7VMsQ-133">
          <mxGeometry x="190" y="290" width="730" height="40" as="geometry" />
        </mxCell>
        <mxCell id="jlmcXLu1mNQ2lfW7VMsQ-162" value="password" style="fillColor=none;strokeColor=none;align=left;fontSize=16;fontColor=#212529;" vertex="1" parent="jlmcXLu1mNQ2lfW7VMsQ-133">
          <mxGeometry x="110" y="350" width="80" height="40" as="geometry" />
        </mxCell>
        <mxCell id="jlmcXLu1mNQ2lfW7VMsQ-163" value="" style="html=1;shadow=0;dashed=0;shape=mxgraph.bootstrap.rrect;rSize=5;fillColor=none;strokeColor=#999999;align=left;spacing=15;fontSize=16;fontColor=#6C767D;" vertex="1" parent="jlmcXLu1mNQ2lfW7VMsQ-133">
          <mxGeometry x="190" y="350" width="730" height="40" as="geometry" />
        </mxCell>
        <mxCell id="jlmcXLu1mNQ2lfW7VMsQ-164" value="phone" style="fillColor=none;strokeColor=none;align=left;fontSize=16;fontColor=#212529;" vertex="1" parent="jlmcXLu1mNQ2lfW7VMsQ-133">
          <mxGeometry x="110" y="410" width="80" height="40" as="geometry" />
        </mxCell>
        <mxCell id="jlmcXLu1mNQ2lfW7VMsQ-165" value="" style="html=1;shadow=0;dashed=0;shape=mxgraph.bootstrap.rrect;rSize=5;fillColor=none;strokeColor=#999999;align=left;spacing=15;fontSize=16;fontColor=#6C767D;" vertex="1" parent="jlmcXLu1mNQ2lfW7VMsQ-133">
          <mxGeometry x="190" y="410" width="730" height="40" as="geometry" />
        </mxCell>
        <mxCell id="jlmcXLu1mNQ2lfW7VMsQ-212" value="Register&lt;br&gt;(Edit)" style="strokeWidth=1;shadow=0;dashed=0;align=center;html=1;shape=mxgraph.mockup.buttons.button;strokeColor=#666666;fontColor=#ffffff;mainText=;buttonStyle=round;fontSize=17;fontStyle=1;fillColor=#008cff;whiteSpace=wrap;" vertex="1" parent="jlmcXLu1mNQ2lfW7VMsQ-133">
          <mxGeometry x="440" y="530" width="150" height="50" as="geometry" />
        </mxCell>
        <mxCell id="jlmcXLu1mNQ2lfW7VMsQ-166" value="&lt;span style=&quot;font-size: 24px&quot;&gt;User Registration (Details)&lt;/span&gt;" style="text;html=1;strokeColor=none;fillColor=none;align=center;verticalAlign=middle;whiteSpace=wrap;rounded=0;" vertex="1" parent="1">
          <mxGeometry x="300" y="3690" width="550" height="60" as="geometry" />
        </mxCell>
        <mxCell id="jlmcXLu1mNQ2lfW7VMsQ-182" value="" style="strokeWidth=1;shadow=0;dashed=0;align=center;html=1;shape=mxgraph.mockup.containers.browserWindow;rSize=0;strokeColor=#666666;strokeColor2=#008cff;strokeColor3=#c4c4c4;mainText=,;recursiveResize=0;" vertex="1" parent="1">
          <mxGeometry x="30" y="4210" width="1050" height="740" as="geometry" />
        </mxCell>
        <mxCell id="jlmcXLu1mNQ2lfW7VMsQ-183" value="Login" style="strokeWidth=1;shadow=0;dashed=0;align=center;html=1;shape=mxgraph.mockup.containers.anchor;fontSize=17;fontColor=#666666;align=left;" vertex="1" parent="jlmcXLu1mNQ2lfW7VMsQ-182">
          <mxGeometry x="60" y="12" width="110" height="26" as="geometry" />
        </mxCell>
        <mxCell id="jlmcXLu1mNQ2lfW7VMsQ-184" value="User Login" style="strokeWidth=1;shadow=0;dashed=0;align=center;html=1;shape=mxgraph.mockup.containers.anchor;rSize=0;fontSize=17;fontColor=#666666;align=left;" vertex="1" parent="jlmcXLu1mNQ2lfW7VMsQ-182">
          <mxGeometry x="130" y="60" width="250" height="26" as="geometry" />
        </mxCell>
        <mxCell id="jlmcXLu1mNQ2lfW7VMsQ-209" value="" style="group" vertex="1" connectable="0" parent="jlmcXLu1mNQ2lfW7VMsQ-182">
          <mxGeometry x="100" y="180" width="260" height="40" as="geometry" />
        </mxCell>
        <mxCell id="jlmcXLu1mNQ2lfW7VMsQ-204" value="username" style="fillColor=none;strokeColor=none;align=left;fontSize=14;fontColor=#212529;" vertex="1" parent="jlmcXLu1mNQ2lfW7VMsQ-209">
          <mxGeometry width="260" height="40" as="geometry" />
        </mxCell>
        <mxCell id="jlmcXLu1mNQ2lfW7VMsQ-205" value="" style="html=1;shadow=0;dashed=0;shape=mxgraph.bootstrap.rrect;rSize=5;fillColor=none;strokeColor=#999999;align=left;spacing=15;fontSize=14;fontColor=#6C767D;" vertex="1" parent="jlmcXLu1mNQ2lfW7VMsQ-209">
          <mxGeometry width="800" height="30" relative="1" as="geometry">
            <mxPoint y="40" as="offset" />
          </mxGeometry>
        </mxCell>
        <mxCell id="jlmcXLu1mNQ2lfW7VMsQ-206" value="password" style="fillColor=none;strokeColor=none;align=left;fontSize=14;fontColor=#212529;" vertex="1" parent="jlmcXLu1mNQ2lfW7VMsQ-209">
          <mxGeometry width="260" height="40" relative="1" as="geometry">
            <mxPoint y="80" as="offset" />
          </mxGeometry>
        </mxCell>
        <mxCell id="jlmcXLu1mNQ2lfW7VMsQ-207" value="" style="html=1;shadow=0;dashed=0;shape=mxgraph.bootstrap.rrect;rSize=5;fillColor=none;strokeColor=#999999;align=left;spacing=15;fontSize=14;fontColor=#6C767D;" vertex="1" parent="jlmcXLu1mNQ2lfW7VMsQ-209">
          <mxGeometry width="800" height="30" relative="1" as="geometry">
            <mxPoint y="120" as="offset" />
          </mxGeometry>
        </mxCell>
        <mxCell id="jlmcXLu1mNQ2lfW7VMsQ-210" value="Register" style="html=1;shadow=0;dashed=0;shape=mxgraph.bootstrap.rrect;rSize=5;strokeColor=none;strokeWidth=1;fillColor=none;fontColor=#0085FC;whiteSpace=wrap;align=left;verticalAlign=middle;spacingLeft=0;fontStyle=0;fontSize=16;spacing=5;" vertex="1" parent="jlmcXLu1mNQ2lfW7VMsQ-182">
          <mxGeometry x="100" y="400" width="335" height="40" as="geometry" />
        </mxCell>
        <mxCell id="jlmcXLu1mNQ2lfW7VMsQ-211" value="No account?&amp;nbsp;" style="text;html=1;strokeColor=none;fillColor=none;align=left;verticalAlign=middle;whiteSpace=wrap;rounded=0;" vertex="1" parent="jlmcXLu1mNQ2lfW7VMsQ-182">
          <mxGeometry x="100" y="390" width="140" height="20" as="geometry" />
        </mxCell>
        <mxCell id="jlmcXLu1mNQ2lfW7VMsQ-255" value="Sign in" style="strokeWidth=1;shadow=0;dashed=0;align=center;html=1;shape=mxgraph.mockup.buttons.button;strokeColor=#666666;fontColor=#ffffff;mainText=;buttonStyle=round;fontSize=17;fontStyle=1;fillColor=#008cff;whiteSpace=wrap;" vertex="1" parent="jlmcXLu1mNQ2lfW7VMsQ-182">
          <mxGeometry x="100" y="340" width="70" height="40" as="geometry" />
        </mxCell>
      </root>
    </mxGraphModel>
  </diagram>
</mxfile>
